<svg xmlns="http://www.w3.org/2000/svg" width="118" height="11" viewBox="0 0 118 11">
    <g fill="none" fill-rule="evenodd" stroke="#9DA2AE" stroke-linecap="round" stroke-width="1.824">
        <path stroke-linejoin="bevel" d="M6.037 10L1.466 5.5 6.037 1"/>
        <path d="M1.508 5.5H116.5"/>
    </g>
</svg>
