id,path,key,table,through,role_required,field,post,get,update,delete,where_key,where_value,where_table,type_of_filter,sort_by_field
1,user,password,UserPassword,User,null,password,1,0,1,0,null,null,null,,
2,user,zip_code,Address,User-UserAddress,null,zip_code,null,null,null,null,null,null,null,,
3,user,latitude,Address,User-UserAddress,null,latitude,null,null,null,null,null,null,null,,
4,user,longitude,Address,User-UserAddress,null,longitude,null,null,null,null,null,null,null,,
5,user,street,Address,User-UserAddress,null,street,null,null,null,null,null,null,null,,
6,user,number,Address,User-UserAddress,null,number,null,null,null,null,null,null,null,,
7,user,entrance,Address,User-UserAddress,null,entrance,null,null,null,null,null,null,null,,
8,user,floor,Address,User-UserAddress,null,floor,null,null,null,null,null,null,null,,
9,user,country,Address,User-UserAddress,null,country,null,null,null,null,null,null,null,,
10,user,username,User,null,null,login_name,null,null,null,null,null,null,null,,
10,user,pt_admin,User,null,null,pt_admin,null,null,null,null,null,null,null,,
10,user,num_ip_allowed,User,null,null,num_ip_allowed,null,null,null,null,null,null,null,,
10,user,num_device_allowed,User,null,null,num_device_allowed,null,null,null,null,null,null,null,,
12,user,last_name,User,null,null,last_name,null,null,null,null,null,null,null,,
13,user,city,Address,User-UserAddress,null,city,null,null,null,null,null,null,null,,
14,user,id,User,,null,id,null,null,null,null,null,null,null,,
14,user,language_code,User,,null,language_code,null,null,null,null,null,null,null,,
15,user,phone_number,UserContact,User,null,value,null,null,null,,type,1,UserContact,col,
16,user,label,UserContact,User,null,label,null,null,null,null,null,null,null,,
22,user,israeli_id,User,null,null,israeli_id,null,null,null,null,null,null,null,,
38,user,account_mail,UserContact,User,null,value,null,null,null,null,type,2,UserContact,col,
38,user,login_history,LoginHistory,User,null,timestamp_login,0,1,null,null,type,2,UserContact,col,
38,user,login_history,LoginHistory,User,null,user_ip,0,1,null,null,type,2,UserContact,col,
38,user,id,UserDocument,User,null,id,1,1,1,null,,,,"",
38,user,user_ip,LoginHistory,User,null,user_ip,null,null,null,null,,,,null,
38,user,document_by_type,UserDocument,User,null,document_by_type,1,0,0,null,,,,"",
38,user,document_by_type,UserDocument,User,null,url,0,1,0,null,,,,"",id
38,user,document,UserDocument,User,null,url,1,1,null,null,,,,"",
38,user,type,UserDocument,User,null,type,1,1,null,null,,,,"",
38,user_doc,document,UserDocument,,null,url,1,1,null,null,,,,"",
38,user_doc,type,UserDocument,,null,type,1,1,null,null,,,,"",
38,user_doc,expired_time,UserDocument,,null,expired_time,1,1,null,null,,,,"",
38,user_doc,user_id,UserDocument,,null,user_id,1,0,null,null,,,,"",
38,business,frame,BusinessFinance,Business,null,frame,null,null,null,null,null,2,null,col,
38,business,temp_frame,BusinessFinance,Business,null,temp_frame,null,null,null,null,null,2,null,col,
38,business,balance,BusinessFinance,Business,null,balance,null,null,null,null,null,2,null,col,
38,business,business_id,BusinessFinance,Business,null,business_id,0,0,1,null,null,2,null,col,
38,business,author_id,BusinessFinance,Business,null,author_id,0,0,1,null,null,2,null,col,
89,user,status,User,,,status,,,,,,,,,
17,business,country,Address,Business-BusinessAddress,null,country,null,null,null,null,null,null,null,,
18,business,is_distributor,Business,null,null,is_distributor,null,null,null,null,null,null,null,,
18,business,name,Business,null,null,name,null,null,null,null,null,null,null,,
18,business,delek_store_identifier,Business,null,null,delek_store_identifier,null,null,null,null,null,null,null,,
18,business,second_phone_number,Business,null,null,second_phone_number,null,null,null,null,null,null,null,,
18,business,section_20,Business,null,null,use_article_20,null,null,null,null,null,null,null,,
18,business,agent_id,Business,null,null,agent_id,null,null,null,null,null,null,null,,
18,business,use_distribution_fee,Business,null,null,use_distribution_fee,null,null,null,null,null,null,null,,
19,user,first_name,User,null,null,first_name,null,null,null,null,null,null,null,,
21,business,city,Address,Business-BusinessAddress,null,city,null,null,null,null,null,null,null,,
23,business,street,Address,Business-BusinessAddress,null,street,null,null,null,null,null,null,null,,
24,business,number,Address,Business-BusinessAddress,null,number,null,null,null,null,null,null,null,,
25,business,entrance,Address,Business-BusinessAddress,null,entrance,null,null,null,null,null,null,null,,
26,business,floor,Address,Business-BusinessAddress,null,floor,null,null,null,null,null,null,null,,
27,business,zip_code,Address,Business-BusinessAddress,null,zip_code,null,null,null,null,null,null,null,,
28,business,latitude,Address,Business-BusinessAddress,null,latitude,null,null,null,null,null,null,null,,
29,business,longitude,Address,Business-BusinessAddress,null,longitude,null,null,null,null,null,null,null,,
29,business,business_identifier,Business,,null,business_identifier,null,null,null,null,null,null,null,,
29,business,distributor_id,Business,,null,distributor_id,null,null,null,null,null,null,null,,
29,business,status,Business,,null,status,null,null,null,null,null,null,null,,
29,business,business_license_number,Business,,null,business_license_number,null,null,null,null,null,null,null,,
29,business,phone_number,Business,,null,phone_number,null,null,null,null,null,null,null,,
29,business,opening_hours,Business,,null,opening_hours,null,null,null,null,null,null,null,,
29,business,status_author_id,Business,,null,status_author_id,null,null,null,null,null,null,null,,
29,business,business_identifier,Business,,null,business_identifier,null,null,null,null,null,null,null,,
29,business,distributor_business_id,Business,,null,distributor_business_id,null,null,null,null,null,null,null,,
30,branch,longitude,Address,Branch-BranchAddress,null,longitude,null,null,null,null,null,null,null,,
31,branch,latitude,Address,Branch-BranchAddress,null,latitude,null,null,null,null,null,null,null,,
32,branch,zip_code,Address,Branch-BranchAddress,null,zip_code,null,null,null,null,null,null,null,,
33,branch,floor,Address,Branch-BranchAddress,null,floor,null,null,null,null,null,null,null,,
34,branch,entrance,Address,Branch-BranchAddress,null,entrance,null,null,null,null,null,null,null,,
35,branch,number,Address,Branch-BranchAddress,null,number,null,null,null,null,null,null,null,,
36,branch,street,Address,Branch-BranchAddress,null,street,null,null,null,null,null,null,null,,
37,branch,city,Address,Branch-BranchAddress,null,city,null,null,null,null,null,null,null,,
39,product,barcode_by_type,ProductBarcode,Product,,barcode_by_type,1,0,null,null,null,null,null,,
39,product,barcode_by_type,ProductBarcode,Product,,barcode,0,1,null,null,null,null,null,,barcode_type_id
39,product,barcode_type_id,ProductBarcode,Product,,barcode_type_id,1,0,1,null,null,null,null,,
39,product,barcode_type,BarcodeType,Product-ProductBarcode,,name,0,1,null,null,null,null,null,,id
39,barcode_type,name,BarcodeType,,,name,1,1,null,null,null,null,null,,
39,barcode_type,required,BarcodeType,,,required,1,1,null,null,null,null,null,,
39,barcode_type,status,BarcodeType,,,status,1,1,null,null,null,null,null,,
39,product,price,ProductPrice,Product,Product,fixed_price,null,null,null,null,null,null,null,,
39,product,distribution_fee,ProductPrice,Product,Product,distribution_fee,null,null,null,null,null,null,null,,
40,product,seller_id,ProductDetails,Product,null,seller_id,null,null,null,null,null,null,null,,
40,product,more_details_link,Product,,null,more_details_link,null,null,null,null,null,null,null,,
40,product,video_link,Product,,null,video_link,null,null,null,null,null,null,null,,
40,product,supplier_identity_number,Product,,null,supplier_identity_number,null,null,null,null,null,null,null,,
40,product,supplier_color,Product,,null,supplier_color,null,null,null,null,null,null,null,,
40,product,call_terms,Product,,null,call_terms,null,null,null,null,null,null,null,,
40,product_cost,country_id,Cost,,null,country_id,1,1,null,null,null,null,null,,
40,product_cost,country,Country,Cost,null,name,1,1,null,null,null,null,null,,
40,product_cost,outcomePrice,Cost,,null,outgoing_call_per_minute,null,null,null,null,null,null,null,,
40,product_cost,incomePrice,Cost,,null,incoming_call_per_minute,null,null,null,null,null,null,null,,
40,product_cost,smsPrice,Cost,,null,sms,null,null,null,null,null,null,null,,
40,product_cost,product_id,Cost,,null,product_id,null,null,null,null,null,null,null,,
40,country,name,Country,,null,name,null,null,null,null,null,null,null,,
41,product,language_id,ProductDetails,Product,null,language_code,null,null,null,null,null,null,null,,
42,product,name_he,ProductDetails,Product,null,product_name,null,null,null,null,language_code,HE,ProductDetails,col,
42,product,name_en,ProductDetails,Product,null,product_name,null,null,null,null,language_code,EN,ProductDetails,col,
42,product,name_ar,ProductDetails,Product,null,product_name,null,null,null,null,language_code,AR,ProductDetails,col,
43,product,product_title,ProductDetails,Product,null,product_title,null,null,null,null,null,null,null,,
60,product,category_id,ProductCategory,Product,null,category_id,null,null,null,null,null,null,null,,
62,product,upscale_product_id,ProductCategory,Product,null,upscale_product_id,null,null,null,null,null,null,null,,
63,product,order,Product,,null,order,null,null,null,null,null,null,null,,
63,product,timestamp_start,ProductPrice,Product,null,timestamp_start,null,null,null,null,null,null,null,,
63,product,timestamp_end,ProductPrice,Product,null,timestamp_end,null,null,null,null,null,null,null,,
63,product,supplier_id,Product,,null,supplier_id,null,null,null,null,null,null,null,,
63,product,id,Product,,null,id,null,null,null,null,null,null,null,,
63,product,price_status,ProductPrice,,Product,status,null,null,null,null,null,null,null,,
63,product,status,Product,,null,status,null,null,null,null,null,null,null,,
63,product,status_author_id,Product,,null,status_author_id,null,null,null,null,null,null,null,,
63,product,price_status_author_id,ProductPrice,,null,status_author_id,null,null,null,null,null,null,null,,
63,product,category_id,ProductCategory,Product,null,category_id,null,null,null,null,null,null,null,,
63,product,status_timestamp,Product,,null,status_timestamp,null,null,null,null,null,null,null,,
63,product,price_status_timestamp,ProductPrice,,null,status_timestamp,null,null,null,null,null,null,null,,
63,product,image,Document,Product,null,url,null,null,1,null,type,1,Document,col,
63,product,internet,CategoryName,Product-ProductCategory-Category,null,name,1,null,null,null,name,internet,CategoryName,col,
63,product,recommended,CategoryName,Product-ProductCategory-Category,null,name,1,null,null,null,name,recommended,CategoryName,col,
63,product,favorite,CategoryName,Product-ProductCategory-Category,null,name,1,null,null,null,name,favorite,CategoryName,col,
64,seller,name,User,Business-UserBusiness,null,login_name,null,null,null,null,null,null,null,,
65,seller,last_name,User,Business-UserBusiness,null,last_name,null,null,null,null,null,null,null,,
66,seller,city,Address,Business-BusinessAddress,null,city,null,null,null,null,null,null,null,,
67,seller,phone_number,UserContact,Business-UserBusiness-User,null,value,null,null,null,null,null,null,null,,
68,seller,logo,Document,Business-BusinessDocument,null,url,null,null,0,null,null,null,null,,
69,seller,mail,Document,Business-BusinessDocument,null,url,null,null,0,null,null,null,null,,
70,seller,business_phone,UserContact,Business-UserBusiness-User,null,value,null,null,null,null,null,null,null,,
71,seller,account_mail,UserContact,Business-UserBusiness,null,value,null,null,null,null,type,2,UserContact,col,
72,seller,service_phone,UserContact,Business-UserBusiness-User,null,value,null,null,null,null,null,null,null,,
73,seller,country,Address,Business-BusinessAddress,null,country,null,null,null,null,null,null,null,,
74,seller,street,Address,Business-BusinessAddress,null,country,null,null,null,null,null,null,null,,
75,seller,number,Address,Business-BusinessAddress,null,country,null,null,null,null,null,null,null,,
76,seller,entrance,Address,Business-BusinessAddress,null,entrance,null,null,null,null,null,null,null,,
77,seller,floor,Address,Business-BusinessAddress,null,floor,null,null,null,null,null,null,null,,
78,seller,zip_code,Address,Business-BusinessAddress,null,zip_code,null,null,null,null,null,null,null,,
79,seller,latitude,Address,Business-BusinessAddress,null,latitude,null,null,null,null,null,null,null,,
80,seller,longitude,Address,Business-BusinessAddress,null,longitude,null,null,null,null,null,null,null,,
81,supplier,name,Supplier,,,name,,,,,,,,,
81,supplier,order,Supplier,,,order,,,,,,,,,
81,supplier,cancel_option,Supplier,,,cancel_option,,,,,,,,,
81,supplier,max_payment,Supplier,,,max_payment,,,,,,,,,
81,supplier,max_percentage_profit,Supplier,,,max_percentage_profit,,,,,,,,,
81,supplier,min_percentage_profit,Supplier,,,min_percentage_profit,,,,,,,,,
81,supplier,default_creation,Supplier,,,default_creation,,,,,,,,,
81,supplier,credit_card_id,Supplier,,,credit_card_id,,,,,,,,,
83,supplier,image,Document,Supplier,,url,,,1,,type,3,Document,col,
83,supplier,logo,Document,Supplier,,url,,,1,,type,1,Document,col,
84,supplier,logoBackgroundColor,SupplierColor,Supplier,,logo_background,,,,,,,,,
85,supplier,fontColor,SupplierColor,Supplier,,font,,,,,,,,,
87,supplier,productCardBackgroundColor,SupplierColor,Supplier,,product_background,,,,,,,,,
88,supplier,chosenCardBackgroundColor,SupplierColor,Supplier,,chosen_background,,,,,,,,,
89,supplier,type,Supplier,,,type,,,,,,,,,
89,supplier,id,Supplier,,,id,,,,,,,,,
4,supplier,contact_name,User,Supplier-SupplierUser,,last_name,,,,,,,,,
92,business,tags,Tag,Business,,id,0,,0,,,,,,
94,user,id_validity,User,,,id_validity,,,,,,,,,
95,supplier,favorite_star_color,SupplierColor,Supplier,,favorite_star_color,,,,,,,,,
92,supplier,user_name,User,Supplier-SupplierUser,,login_name,,,,,,,,,
93,supplier,phone_number,UserContact,Supplier-SupplierUser-User,,value,,,0,,,,,,
94,user,business_id,UserBusiness,User,,business_id,,,,,,,,,
94,user,distributor_id,Business,User-UserBusiness,,distributor_id,,,,,,,,,
92,business,points,BusinessPoint,Business,,sum,,,,,,,,,
84,supplier,logo_background_color,SupplierColor,Supplier,,logo_background,,,,,,,,,
85,supplier,font_color,SupplierColor,Supplier,,font,,,,,,,,,
86,supplier,background_image,Document,Supplier,,url,,,0,,type,4,Document,col,
87,supplier,product_card_background_color,SupplierColor,Supplier,,product_background,,,,,,,,,
88,supplier,chosen_card_background_color,SupplierColor,Supplier,,chosen_background,,,,,,,,,
89,supplier,type,Supplier,,,type,,,,,,,,,
89,supplier,id,Supplier,,,id,,,,,,,,,
89,supplier,status,Supplier,,,status,,,,,,,,,
92,supplier,user_name,User,Supplier-SupplierUser,,login_name,,,,,,,,,
93,supplier,phone_number,UserContact,Supplier-SupplierUser-User,,value,,,1,,,,,,
93,supplier,address,Address,Supplier-SupplierUser-User-UserAddress,,street,,,,,,,,,
93,supplier,city,Address,Supplier-SupplierUser-User-UserAddress,,city,,,,,,,,,
92,supplier_list,name,Supplier,,,name,,,,,,,,,
92,supplier_list,status,Supplier,,,status,,,,,,,,,
92,supplier_list,order,Supplier,,,order,,,,,,,,,
93,supplier_list,id,Supplier,,,id,,,,,,,,,
93,supplier_list,type,Supplier,,,type,,,,,,,,,
94,supplier_list,image,Document,Supplier,,url,,,0,,type,3,Document,col,
94,supplier_list,contact_name,User,Supplier-SupplierUser,,last_name,,,,,,,,,
94,supplier_list,contact_phone_number,UserContact,Supplier-SupplierUser-User,,value,,,0,,type,1,UserContact,col,
93,supplier_list,phone_number,UserContact,Supplier-SupplierUser-User,,value,,,0,,,,,,
81,supplier_list,cancel_option,Supplier,,,cancel_option,,,,,,,,,
81,supplier_list,max_payment,Supplier,,,max_payment,,,,,,,,,
81,supplier_list,max_percentage_profit,Supplier,,,max_percentage_profit,,,,,,,,,
81,supplier_list,min_percentage_profit,Supplier,,,min_percentage_profit,,,,,,,,,
81,supplier_list,default_creation,Supplier,,,default_creation,,,,,,,,,
81,supplier_list,credit_card_id,Supplier,,,credit_card_id,,,,,,,,,
83,supplier_list,logo,Document,Supplier,,url,,,1,,type,1,Document,col,
84,supplier_list,logoBackgroundColor,SupplierColor,Supplier,,logo_background,,,,,,,,,
94,supplier,contact_phone_number,UserContact,Supplier-SupplierUser-User,,value,,,0,,type,1,UserContact,col,
94,supplier_list,address,Address,Supplier-SupplierUser-User-UserAddress,,street,,,,,,,,,
,supplier_list,contact_name,User,Supplier-SupplierUser,,last_name,,,,,,,,,
,manual_card,card_number,ManualCard,,,card_number,,,,,,,,,
,manual_card,code,ManualCard,,,code,,,,,,,,,
,manual_card,expiry_date,ManualCard,,,expiry_date,,,,,,,,,
,manual_card,insert_date,ManualCard,,,insert_date,,,,,,,,,
,manual_card,product_id,ManualCard,,,product_id,,,,,,,,,
,manual_card,status,ManualCard,,,status,,,,,,,,,
,manual_card,author_id,ManualCard,,,author_id,,,,,,,,,
,manual_card,author,User,ManualCard,,login_name,,,,,,,,,
,product,usage_time_limit,Product,,,usage_time_limit,,,,,,,,,
,product,type,Product,,,type,,,,,,,,,
,product,is_abstract,Product,,,is_abstract,,,,,,,,,
,product,profit_model,Product,,,profit_model,,,,,,,,,
,gift,name,Gift,,,name,,,,,,,,,
,gift,description,Gift,,,description,,,,,,,,,
,gift,points_required,Gift,,,points_required,,,,,,,,,
,gift,picture,Gift,,,picture,,,,,,,,,
,gift,status,Gift,,,status,,,,,,,,,
,gift,status_timestamp,Gift,,,status,,,,,,,,,
,gift,author_id,Gift,,,author_id,,,,,,,,,
,gift,status_author_id,Gift,,,status_author_id,,,,,,,,,
,gift_order,user_id,GiftOrder,,,user_id,,,,,,,,,
,gift_order,gift_id,GiftOrder,,,gift_id,,,,,,,,,
,gift_order,order_date,GiftOrder,,,order_date,,,,,,,,,
,gift_order,cancel_date,GiftOrder,,,cancel_date,,,,,,,,,
,gift_order,delivery_date,GiftOrder,,,delivery_date,,,,,,,,,
,gift_order,utilizing_points,GiftOrder,,,utilizing_points,,,,,,,,,
,gift_order,address,GiftOrder,,,address,,,,,,,,,
,gift_order,status,GiftOrder,,,status,,,,,,,,,
,gift_order,status_timestamp,GiftOrder,,,status_timestamp,,,,,,,,,
,gift_order,author_id,GiftOrder,,,author_id,,,,,,,,,
,gift_order,status_author_id,GiftOrder,,,status_author_id,,,,,,,,,
,ordered,gift_id,GiftOrder,,,gift_id,,,,,,,,,
,ordered,name,Gift,GiftOrder,,name,,,,,,,,,
,ordered,description,Gift,GiftOrder,,description,,,,,,,,,
,ordered,points_required,Gift,GiftOrder,,points_required,,,,,,,,,
,ordered,picture,Gift,GiftOrder,,picture,,,,,,,,,
,ordered,status,GiftOrder,,,status,,,,,,,,,
,product,description,ProductDetails,Product,null,product_description,null,null,null,null,language_code,HE,ProductDetails,col,
,product,description_he,ProductDetails,Product,null,product_description,null,null,null,null,language_code,HE,ProductDetails,col,
,product,description_en,ProductDetails,Product,null,product_description,null,null,null,null,language_code,EN,ProductDetails,col,
,product,description_ar,ProductDetails,Product,null,product_description,null,null,null,null,language_code,AR,ProductDetails,col,
,product,title,ProductDetails,Product,null,product_title,null,null,null,null,language_code,HE,ProductDetails,col,
,product,title_he,ProductDetails,Product,null,product_title,null,null,null,null,language_code,HE,ProductDetails,col,
,product,title_en,ProductDetails,Product,null,product_title,null,null,null,null,language_code,EN,ProductDetails,col,
,product,title_ar,ProductDetails,Product,null,product_title,null,null,null,null,language_code,AR,ProductDetails,col,
,product,name,ProductDetails,Product,null,product_name,null,null,null,null,language_code,HE,ProductDetails,col,
,product,name_by_language,ProductDetails,Product,null,product_name,null,null,null,null,,,,,language_code
,language,code,Language,,,code,,,,,,,,,
,credit_card,cc_company_name,CreditCard,,,cc_company_name,,,,,,,,,
,credit_card,cc_type,CreditCard,,,cc_type,,,,,,,,,
,credit_card,cc_number,CreditCard,,,cc_number,,,,,,,,,
,credit_card,status,CreditCard,,,status,,,,,,,,,
,credit_card,status_timestamp,CreditCard,,,status_timestamp,,,,,,,,,
,credit_card,author_id,CreditCard,,,author_id,,,,,,,,,
,credit_card,status_author_id,CreditCard,,,status_author_id,,,,,,,,,
,credit_card,cc_validity,CreditCard,,,cc_validity,,,,,,,,,
,tag,name,Tag,,,tag_name,null,null,null,null,null,null,null,null,
,tag,order,Tag,,,order,null,null,null,null,null,null,null,null,
,tag,type,Tag,,,type,null,null,null,null,null,null,null,null,
,tag,show_on_product,Tag,,,show_on_product,null,null,null,null,null,null,null,null,
,city,city_name,City,,,name_HE,,,,,,,,,
,city,city_name_english,City,,,name_EN,,,,,,,,,
,city,city_name_arabic,City,,,name_AR,,,,,,,,,
,city_payment_type,option,CityPaymentType,,,pay_name,,,,,,,,,
,site,site_url,Site,,,site_url,,,,,,,,,
,site,class_name,Site,,,class_name,,,,,,,,,
,link,area_id,City,CityPaymentTypeSite,,area_id,,,,,,,,,
,link,city_id,CityPaymentTypeSite,,,city_id,,,,,,,,,
,link,city_payment_type_id,CityPaymentTypeSite,,,city_payment_type_id,,,,,,,,,
,link,site_id,CityPaymentTypeSite,,,site_id,,,,,,,,,
,link,params,CityPaymentTypeSite,,,params,,,,,,,,,
,link,city_name,City,CityPaymentTypeSite,,name_HE,,,,,,,,,
,area,name,Area,,,name_HE,,,,,,,,,
,distributor,free_text,Distributor,,,free_text,,,,,,,,,
,distributor,business_name,Business,Distributor,,name,,,,,is_distributor,1,Business,col,
,distributor,business_identifier,Business,Distributor,,business_identifier,,,,,is_distributor,1,Business,col,
,distributor,section_20,Business,Distributor,,business_identifier,,,,,use_article_20,1,Business,col,
,distributor,is_admin,Distributor,,,is_admin,,,,,,,,,
,distributor,theme,Distributor,,,theme,,,,,,,,,
,distributor,user_id,Distributor,,,user_id,,,,,,,,,
,distributor,support_phone,Distributor,,,support_phone,,,,,,,,,
,distributor,sub_domain,Distributor,,,sub_domain,,,,,,,,,
,distributor,first_name,User,Distributor,,first_name,,,,,,,,,
,distributor,last_name,User,Distributor,,last_name,,,,,,,,,
92,distributor,points,BusinessPoint,Distributor-Business,,sum,,,,,,,,,
38,distributor,frame,BusinessFinance,Distributor-Business,null,frame,null,null,null,null,null,2,null,col,
38,distributor,temp_frame,BusinessFinance,Distributor-Business,null,temp_frame,null,null,null,null,null,2,null,col,
38,distributor,balance,BusinessFinance,Distributor-Business,null,balance,null,null,null,null,null,2,null,col,
21,distributor,city,Address,Distributor-Business-BusinessAddress,null,city,null,null,null,null,null,null,null,,
17,distributor,country,Address,Distributor-Business-BusinessAddress,null,country,null,null,null,null,null,null,null,,
,business,contact_name,BusinessContact,Business,,contact_name,,,,,,,,,
,business,is_abstract,Business,,,is_abstract,,0,,,,,,,
,business,contact_phone_number,BusinessContact,Business,,contact_phone_number,,,,,,,,,
,business,contact_mail,BusinessContact,Business,,contact_mail,,,,,,,,,
,business,contact_account_mail,BusinessContact,Business,,contact_account_mail,,,,,,,,,
,business,payment_method,Business,"",,payment_method,,,,,,,,,
,business,use_point,Business,"",,use_point,,,,,,,,,
,business,sunday,CollectionDay,Business,,sunday,,,,,,,,,
,business,monday,CollectionDay,Business,,monday,,,,,,,,,
,business,tuesday,CollectionDay,Business,,tuesday,,,,,,,,,
,business,wednesday,CollectionDay,Business,,wednesday,,,,,,,,,
,business,thursday,CollectionDay,Business,,thursday,,,,,,,,,
,business,friday,CollectionDay,Business,,friday,,,,,,,,,
,business,saturday,CollectionDay,Business,,saturday,,,,,,,,,
,business,monthly,CollectionDay,Business,,monthly,,,,,,,,,
,business,transactions,Transaction,Business,,id,,,,,,,,,
,business,is_delek,Business,,,is_delek,,,,,,,,,
,business,delek_num,Business,,,delek_num,,,,,,,,,
,business,abstract_type,Business,,,abstract_type,,,,,,,,,
83,distributor,logo,Document,Distributor-User,,url,,,1,,type,1,Document,col,
83,distributor,favicon,Document,Distributor-User,,url,,,1,,type,5,Document,col,
,terminal,name,Terminal,,,name,,,,,,,,,
,terminal,mac_address,Terminal,,,mac_address,,,,,,,,,
,terminal,mac_address_required,Terminal,,,mac_address_required,,,,,,,,,
,terminal,cpu_id,Terminal,,,cpu_id,,,,,,,,,
,terminal,cpu_id_required,Terminal,,,cpu_id_required,,,,,,,,,
,terminal,local_token,Terminal,,,local_token,,,,,,,,,
,terminal,branch_id,Terminal,,,branch_id,,,,,,,,,
,terminal,ip_address,Terminal,,,ip_address,,,,,,,,,
,terminal,ip_address_required,Terminal,,,ip_address_required,,,,,,,,,
,terminal,business_id,Terminal,,,business_id,,,,,,,,,
83,distributor,logo,Document,Distributor-DistributorDocument,,url,,,1,,type,1,Document,col,
83,distributor,favicon,Document,Distributor-DistributorDocument,,url,,,1,,type,5,Document,col,
,banner_location,location,BannerLocation,,,location,,,,,,,,,
,banner,name,Banner,,,name,,,,,,,,,
,transactionData,cities_item_id,transactionData,,,cities_item_id,,,,,,,,,
,transactionData,bill_number,transactionData,,,bill_number,,,,,,,,,
,transactionData,client_id,transactionData,,,client_id,,,,,,,,,
,transactionData,price,transactionData,,,price,,,,,,,,,
,transactionData,contract_number,transactionData,,,contract_number,,,,,,,,,
,transactionData,phone_number,transactionData,,,phone_number,,,,,,,,,
,transactionData,item_id,transactionData,,,item_id,,,,,,,,,
,transactionData,customer_id,transactionData,,,customer_id,,,,,,,,,
,transactionData,client_name,transactionData,,,client_name,,,,,,,,,
,transactionData,client_address,transactionData,,,client_address,,,,,,,,,
,transactionData,contact_identification,transactionData,,,contact_identification,,,,,,,,,
,transactionData,confirmation,transactionData,,,confirmation,,,,,,,,,
,transactionData,canceled_by_api,transactionData,,,canceled_by_api,,,,,,,,,
,transactionData,is_canceled,transactionData,,,is_canceled,,,,,,,,,
,transactionData,vat,transactionData,,,vat,,,,,,,,,
,transactionData,ip,transactionData,,,ip,,,,,,,,,
,transactionData,points,transactionData,,,points,,,,,,,,,
,transactionData,business_identifier,transactionData,,,business_identifier,,,,,,,,,

,transactionData,section_20,transactionData,,,section_20,,,,,,,,,
,banner,banner_url,Banner,,,banner_url,,,,,,,,,
,branch,name,Branch,,,name,,,,,,,,,
,branch,ip_address,Branch,,,ip_address,,,,,,,,,
,branch,ip_address_required,Branch,,,ip_address_required,,,,,,,,,
,branch,business_id,Branch,,,business_id,,,,,,,,,
,banner,link_url,Banner,,,link_url,,,,,,,,,
,banner,start_date,Banner,,,start_date,,,,,,,,,
,banner,distributor_id,BannerDistributor,Banner,,distributor_id,1,1,,,,,,,
,banner,end_date,Banner,,,end_date,,,,,,,,,
,banner,status,Banner,,,status,,,,,,,,,
,banner,order,BannerDisplay,Banner,,order,,,,,,,,,
,banner,duration,BannerDisplay,Banner,,duration,,,,,,,,,
,banner,display_id,BannerDisplay,Banner,,id,0,1,null,,,,,,
,banner,num_bounce,BannerDisplay,Banner,,num_bounce,,,,,,,,,
,banner,location_id,BannerDisplay,Banner,,banner_location_id,1,0,1,,,,,,
,banner,location,BannerLocation,Banner-BannerDisplay,,location,0,1,,,,,,,
,banner,language,BannerLanguage,Banner,,language_code,0,0,1,,,,,,language_code
,banner,language,BannerLanguage,Banner,,language_code,,,,,,,,,,
,banner,tag,BannerTag,Banner,,business_tag_id,,,,,,,,,
,banner,business_id,BannerBusiness,Banner,,business_id,1,0,1,,,,,,
,banner,business_name,Business,Banner-BannerBusiness,,name,0,1,,,,,,,
,transaction,transaction_start_timestamp,Transaction,,,transaction_start_timestamp,,,,,,,,,
,transaction,price,Transaction,,,price,,,,,,,,,
,transaction,is_paid,Transaction,,,is_paid,,,,,,,,,
,transaction,parent_transaction_id,Transaction,,,parent_transaction_id,,,,,,,,,
,transaction,payment,Transaction,,,payment,,,,,,,,,
,transaction,phone_number,Transaction,,,phone_number,,,,,,,,,
,transaction,action,Transaction,,,action,,,,,,,,,
,transaction,business_id,Transaction,,,business_id,,,,,,,,,
,transaction,business_price_not_including_vat,Transaction,,,business_price_not_including_vat,,,,,,,,,
,transaction,business_profit,Transaction,,,business_profit,,,,,,,,,
,transaction,business_profit_not_including_vat,Transaction,,,business_profit_not_including_vat,,,,,,,,,
,transaction,business_profit_vat,Transaction,,,business_profit_vat,,,,,,,,,
,transaction,business_balance,Transaction,,,business_balance,,,,,,,,,
,transaction,distributor_price,Transaction,,,distributor_price,,,,,,,,,
,transaction,distributor_price_not_including_vat,Transaction,,,distributor_price_not_including_vat,,,,,,,,,
,transaction,distributor_profit,Transaction,,,business_profit,,,,,,,,,
,transaction,distributor_profit_not_including_vat,Transaction,,,business_profit_not_including_vat,,,,,,,,,
,transaction,distributor_profit_vat,Transaction,,,distributor_profit_vat,,,,,,,,,
,transaction,distributor_balance,Transaction,,,distributor_balance,,,,,,,,,
,transaction,supplier_id,Transaction,,,supplier_id,,,,,,,,,
,transaction,product_id,Transaction,,,product_id,,,,,,,,,
,transaction,user_id,Transaction,,,user_id,,,,,,,,,
,transaction,hashavshevet_export_id,Transaction,,,hashavshevet_export_id,,,,,,,,,
,transaction,failure_status,Transaction,,,failure_status,,,,,,,,,
,transaction,status,Transaction,,,status,,,,,,,,,
,vat,value,VATRate,,,value,,,,,,,,,
,vat,start_timestamp,VATRate,,,start_timestamp,,,,,,,,,
,credit_card,cc_number_card,CreditCard,,,cc_number_card,,,,,,,,,
,credit_card,cc_holder_name,CreditCard,,,cc_holder_name,,,,,,,,,
,credit_card,cc_holder_id,CreditCard,,,cc_holder_id,,,,,,,,,
,credit_card,cc_cvv_number,CreditCard,,, cc_cvv_number,,,,,,,,,
,credit_card,cc_validity,CreditCard,,, cc_validity,,,,,,,,,
,credit_card,description,CreditCard,,,description,,,,,,,,,
,businessProduct,timestamp_start,BusinessProduct,,,timestamp_start,,,,,,,,,
,businessProduct,timestamp_end,BusinessProduct,,,timestamp_end,,,,,,,,,
,businessProduct,description,BusinessProduct,,,description,,,,,,,,,
,businessProduct,percentage_profit,BusinessProduct,,,percentage_profit,,,,,,,,,
,businessProduct,commission,BusinessProduct,,,commission,,,,,,,,,
,businessProduct,business_id,BusinessProduct,,,business_id,,,,,,,,,
,businessProduct,product_id,BusinessProduct,,,product_id,,,,,,,,,
,businessProduct, article_20_fee,BusinessProduct,,, article_20_fee,,,,,,,,,
,businessSupplier,timestamp_start,BusinessSupplier,,,timestamp_start,,,,,,,,,
,businessSupplier,timestamp_end,BusinessSupplier,,,timestamp_end,,,,,,,,,
,businessSupplier,description,BusinessSupplier,,,description,,,,,,,,,
,businessSupplier,status,BusinessSupplier,,,status,,,,,,,,,
,businessSupplier,business_id,BusinessSupplier,,,business_id,,,,,,,,,
,businessSupplier,supplier_id,BusinessSupplier,,,supplier_id,,,,,,,,,
,businessSupplier,author_id,BusinessSupplier,,,author_id,,,,,,,,,
,businessSupplier,status_author_id,BusinessSupplier,,,status_author_id,,,,,,,,,
,businessSupplier,approved_by_id,BusinessSupplier,,,approved_by_id,,,,,,,,,
,businessProduct,timestamp_start,BusinessProduct,,,timestamp_start,,,,,,,,,
,businessProduct,timestamp_end,BusinessProduct,,,timestamp_end,,,,,,,,,
,businessProduct,description,BusinessProduct,,,description,,,,,,,,,
,businessProduct,precentage_profit,BusinessProduct,,,precentage_profit,,,,,,,,,
,businessProduct,commission,BusinessProduct,,,commission,,,,,,,,,
,businessProduct,points,BusinessProduct,,,points,,,,,,,,,
,businessProduct,status,BusinessProduct,,,status,,,,,,,,,
,businessProduct,business_id,BusinessProduct,,,business_id,,,,,,,,,
,businessProduct,author_id,BusinessProduct,,,author_id,,,,,,,,,
,businessProduct,status_author_id,BusinessProduct,,,status_author_id,,,,,,,,,
,businessProduct,product_id,BusinessProduct,,,product_id,,,,,,,,,
,businessProduct,approved_by_id,BusinessProduct,,,approved_by_id,,,,,,,,,
,businessProduct,distribution_fee,BusinessProduct,,,distribution_fee,,,,,,,,,
,businessPayment,date,BusinessPayment,,,date,,,,,,,,,
,businessPayment,hour,BusinessPayment,,,hour,,,,,,,,,
,businessPayment,sum,BusinessPayment,,,sum,,,,,,,,,
,businessPayment,invoice_number,BusinessPayment,,,invoice_number,,,,,,,,,
,businessPayment,business_id,BusinessPayment,,,business_id,,,,,,,,,
,businessPayment,author_id,BusinessPayment,,,author_id,,,,,,,,,
,businessPayment,hashavshevet_import_id,BusinessPayment,,,hashavshevet_import_id,,,,,,,,,
,businessPayment,business_credit,BusinessPayment,,,business_credit,,,,,,,,,
,businessPayment,approver_id,BusinessPayment,,,approver_id,,,,,,,,,
,businessPayment,note,BusinessPayment,,,note,,,,,,,,,






