<svg xmlns="http://www.w3.org/2000/svg" width="21" height="18" viewBox="0 0 21 18">
    <g fill="none" fill-rule="evenodd" stroke="#626A7C" stroke-linecap="round" stroke-linejoin="round" stroke-width=".8">
        <path d="M10.5 15.136H2.98c-.875 0-1.584-.733-1.584-1.636V2.045c0-.903.71-1.636 1.583-1.636h15.042c.875 0 1.583.733 1.583 1.636v6.137M1.396 4.5h18.208"/>
        <path d="M4.167 2.045c.218 0 .395.184.395.41 0 .225-.177.409-.395.409a.403.403 0 0 1-.396-.41c0-.225.177-.409.396-.409zM6.542 2.045c.218 0 .396.184.396.41 0 .225-.178.409-.396.409a.403.403 0 0 1-.396-.41c0-.225.177-.409.396-.409zM8.917 2.045c.218 0 .396.184.396.41 0 .225-.178.409-.396.409a.403.403 0 0 1-.396-.41c0-.225.177-.409.396-.409zM15.646 6.955H7.729M4.563 6.955h.791M10.896 9.41H7.729M4.563 9.41h.791M10.896 11.864H7.729M4.563 11.864h.791M19.604 17.59c0-2.032-1.595-3.68-3.562-3.68-1.968 0-3.563 1.648-3.563 3.68h7.125zM16.042 9.41c1.202 0 2.177 1.006 2.177 2.25 0 1.242-.975 2.25-2.177 2.25-1.203 0-2.177-1.008-2.177-2.25 0-1.244.974-2.25 2.177-2.25z"/>
    </g>
</svg>
