<?xml version="1.0" encoding="UTF-8"?>
<svg width="38px" height="39px" viewBox="0 0 38 39" version="1.1" xmlns="http://www.w3.org/2000/svg" xmlns:xlink="http://www.w3.org/1999/xlink">
    <!-- Generator: sketchtool 52.6 (67491) - http://www.bohemiancoding.com/sketch -->
    <title>C48DB862-61BC-45EB-9DBE-09BB6E06E79D</title>
    <desc>Created with sketchtool.</desc>
    <defs>
        <filter x="-15.7%" y="-12.2%" width="131.4%" height="125.8%" filterUnits="objectBoundingBox" id="filter-1">
            <feOffset dx="0" dy="2" in="SourceAlpha" result="shadowOffsetOuter1"></feOffset>
            <feGaussianBlur stdDeviation="6.5" in="shadowOffsetOuter1" result="shadowBlurOuter1"></feGaussianBlur>
            <feColorMatrix values="0 0 0 0 0   0 0 0 0 0   0 0 0 0 0  0 0 0 0.188575634 0" type="matrix" in="shadowBlurOuter1" result="shadowMatrixOuter1"></feColorMatrix>
            <feMerge>
                <feMergeNode in="shadowMatrixOuter1"></feMergeNode>
                <feMergeNode in="SourceGraphic"></feMergeNode>
            </feMerge>
        </filter>
    </defs>
    <g id="Symbols" stroke="none" stroke-width="1" fill="none" fill-rule="evenodd" fill-opacity="0.333899457" stroke-opacity="0.0762850996">
        <g id="kartis-cellcom-others" transform="translate(1.000000, -5.000000)" fill="#000000" stroke="#000000">
            <g id="Group-12-Copy-3" transform="translate(-1.000000, 0.000000)">
                <g id="Group" filter="url(#filter-1)">
                    <g id="bg-copy-14">
                        <path d="M18.4288199,27.7974621 L14.89577,30.2559747 C14.442441,30.5714288 13.8192192,30.4596591 13.5037651,30.0063301 C13.3291137,29.7553442 13.2788904,29.4382462 13.3674348,29.1455742 L14.6138467,25.0257219 C14.734964,24.6253847 14.5941362,24.1919614 14.260838,23.9392727 L10.8308812,21.3388648 C10.3907801,21.005204 10.3044933,20.3779461 10.6381541,19.9378451 C10.8228857,19.6941828 11.1089439,19.5484289 11.4146533,19.542199 L15.7180281,19.4545029 C16.1361987,19.4459812 16.5048905,19.1781109 16.6422169,18.7830403 L18.0554369,14.7173873 C18.2367685,14.1957195 18.8066621,13.9198225 19.3283299,14.1011541 C19.6171517,14.2015484 19.8441687,14.4285655 19.9445631,14.7173873 L21.3577831,18.7830403 C21.4951095,19.1781109 21.8638013,19.4459812 22.2819719,19.4545029 L26.5853467,19.542199 C27.1375168,19.5534514 27.5760173,20.0101956 27.5647649,20.5623657 C27.558535,20.8680751 27.4127811,21.1541333 27.1691188,21.3388648 L23.739162,23.9392727 C23.4058638,24.1919614 23.265036,24.6253847 23.3861533,25.0257219 L24.6325652,29.1455742 C24.7924935,29.6741963 24.4936081,30.2323768 23.9649859,30.3923051 C23.6723139,30.4808495 23.3552159,30.4306261 23.10423,30.2559747 L19.5711801,27.7974621 C19.2278641,27.5585618 18.7721359,27.5585618 18.4288199,27.7974621 Z" id="Star"></path>
                    </g>
                </g>
            </g>
        </g>
    </g>
</svg>