<svg xmlns="http://www.w3.org/2000/svg" xmlns:xlink="http://www.w3.org/1999/xlink" width="12" height="8" viewBox="0 0 12 8">
    <defs>
        <path id="a" d="M1.41 7.41L6 2.83l4.59 4.58L12 6 6 0 0 6z"/>
    </defs>
    <use fill="#626A7C" fill-rule="evenodd" transform="matrix(1 0 0 -1 0 7.41)" xlink:href="#a"/>
</svg>
