<svg xmlns="http://www.w3.org/2000/svg" width="19" height="24" viewBox="0 0 19 24">
    <g fill="none" fill-rule="evenodd" stroke="#000" stroke-linecap="round" stroke-linejoin="round">
        <path d="M18.5 10c0 7-9 13.5-9 13.5S.5 17 .5 10C.5 4.754 4.253.5 9.5.5c5.246 0 9 4.254 9 9.5z"/>
        <path d="M9.5 4.5a5 5 0 1 1-.001 10.001A5 5 0 0 1 9.5 4.5z"/>
    </g>
</svg>
