<svg xmlns="http://www.w3.org/2000/svg" width="24" height="24" viewBox="0 0 24 24">
    <g fill="none" fill-rule="evenodd" stroke="#626A7C" stroke-linejoin="round">
        <path d="M17.5 11.5a6 6 0 1 1 0 12 6 6 0 0 1 0-12z"/>
        <path stroke-linecap="round" d="M15 17.5h5M17.5 20v-5M20.5 10V2.5h-4M4.5 2.5h-4v16h9"/>
        <path stroke-linecap="round" d="M4.5 4.5h3v-4h-3zM13.5 4.5h3v-4h-3zM7.5 2.5h6M.5 7.5h20"/>
    </g>
</svg>
